{
  "page": 1,
  "total_results": 19605,
  "total_pages": 981,
  "results": [
    {
      "vote_count": 4064,
      "id": 211672,
      "video": false,
      "vote_average": 6.4,
      "title": "Minions",
      "popularity": 198.038422,
      "poster_path": "\/q0R4crx2SehcEEQEkYObktdeFy.jpg",
      "original_language": "en",
      "original_title": "Minions",
      "genre_ids": [
        10751,
        16,
        12,
        35
      ],
      "backdrop_path": "\/uX7LXnsC7bZJZjn048UCOwkPXWJ.jpg",
      "adult": false,
      "overview": "Minions Stuart, Kevin and Bob are recruited by Scarlet Overkill, a super-villain who, alongside her inventor husband Herb, hatches a plot to take over the world.",
      "release_date": "2015-06-17"
    },
    {
      "vote_count": 4526,
      "id": 321612,
      "video": false,
      "vote_average": 6.8,
      "title": "Beauty and the Beast",
      "popularity": 97.28354,
      "poster_path": "\/tWqifoYuwLETmmasnGHO7xBjEtt.jpg",
      "original_language": "en",
      "original_title": "Beauty and the Beast",
      "genre_ids": [
        10751,
        14,
        10749
      ],
      "backdrop_path": "\/6aUWe0GSl69wMTSWWexsorMIvwU.jpg",
      "adult": false,
      "overview": "A live-action adaptation of Disney's version of the classic 'Beauty and the Beast' tale of a cursed prince and a beautiful young woman who helps him break the spell.",
      "release_date": "2017-03-16"
    },
    {
      "vote_count": 2301,
      "id": 315635,
      "video": false,
      "vote_average": 7.4,
      "title": "Spider-Man: Homecoming",
      "popularity": 86.295351,
      "poster_path": "\/c24sv2weTHPsmDa7jEMN0m2P3RT.jpg",
      "original_language": "en",
      "original_title": "Spider-Man: Homecoming",
      "genre_ids": [
        28,
        12,
        878
      ],
      "backdrop_path": "\/vc8bCGjdVp0UbMNLzHnHSLRbBWQ.jpg",
      "adult": false,
      "overview": "Following the events of Captain America: Civil War, Peter Parker, with the help of his mentor Tony Stark, tries to balance his life as an ordinary high school student in Queens, New York City, with fighting crime as his superhero alter ego Spider-Man as a new threat, the Vulture, emerges.",
      "release_date": "2017-07-05"
    },
    {
      "vote_count": 3457,
      "id": 283995,
      "video": false,
      "vote_average": 7.6,
      "title": "Guardians of the Galaxy Vol. 2",
      "popularity": 76.988743,
      "poster_path": "\/y4MBh0EjBlMuOzv9axM4qJlmhzz.jpg",
      "original_language": "en",
      "original_title": "Guardians of the Galaxy Vol. 2",
      "genre_ids": [
        28,
        12,
        35,
        878
      ],
      "backdrop_path": "\/aJn9XeesqsrSLKcHfHP4u5985hn.jpg",
      "adult": false,
      "overview": "The Guardians must fight to keep their newfound family together as they unravel the mysteries of Peter Quill's true parentage.",
      "release_date": "2017-04-19"
    },
    {
      "vote_count": 1173,
      "id": 324852,
      "video": false,
      "vote_average": 6.2,
      "title": "Despicable Me 3",
      "popularity": 54.049044,
      "poster_path": "\/5qcUGqWoWhEsoQwNUrtf3y3fcWn.jpg",
      "original_language": "en",
      "original_title": "Despicable Me 3",
      "genre_ids": [
        878,
        12,
        16,
        35,
        10751
      ],
      "backdrop_path": "\/puV2PFq42VQPItaygizgag8jrXa.jpg",
      "adult": false,
      "overview": "Gru and his wife Lucy must stop former '80s child star Balthazar Bratt from achieving world domination.",
      "release_date": "2017-06-15"
    },
    {
      "vote_count": 4089,
      "id": 119450,
      "video": false,
      "vote_average": 7.3,
      "title": "Dawn of the Planet of the Apes",
      "popularity": 43.490455,
      "poster_path": "\/2EUAUIu5lHFlkj5FRryohlH6CRO.jpg",
      "original_language": "en",
      "original_title": "Dawn of the Planet of the Apes",
      "genre_ids": [
        878,
        28,
        18,
        53
      ],
      "backdrop_path": "\/rjUl3pd1LHVOVfG4IGcyA1cId5l.jpg",
      "adult": false,
      "overview": "A group of scientists in San Francisco struggle to stay alive in the aftermath of a plague that is wiping out humanity, while Caesar tries to maintain dominance over his community of intelligent apes.",
      "release_date": "2014-06-26"
    },
    {
      "vote_count": 1260,
      "id": 374720,
      "video": false,
      "vote_average": 7.4,
      "title": "Dunkirk",
      "popularity": 43.479159,
      "poster_path": "\/cUqEgoP6kj8ykfNjJx3Tl5zHCcN.jpg",
      "original_language": "en",
      "original_title": "Dunkirk",
      "genre_ids": [
        28,
        18,
        36,
        53,
        10752
      ],
      "backdrop_path": "\/fudEG1VUWuOqleXv6NwCExK0VLy.jpg",
      "adult": false,
      "overview": "Miraculous evacuation of Allied soldiers from Belgium, Britain, Canada, and France, who were cut off and surrounded by the German army from the beaches and harbor of Dunkirk, France, between May 26 and June 04, 1940, during Battle of France in World War II.",
      "release_date": "2017-07-19"
    },
    {
      "vote_count": 8968,
      "id": 118340,
      "video": false,
      "vote_average": 7.9,
      "title": "Guardians of the Galaxy",
      "popularity": 38.64422,
      "poster_path": "\/y31QB9kn3XSudA15tV7UWQ9XLuW.jpg",
      "original_language": "en",
      "original_title": "Guardians of the Galaxy",
      "genre_ids": [
        28,
        878,
        12
      ],
      "backdrop_path": "\/bHarw8xrmQeqf3t8HpuMY7zoK4x.jpg",
      "adult": false,
      "overview": "Light years from Earth, 26 years after being abducted, Peter Quill finds himself the prime target of a manhunt after discovering an orb wanted by Ronan the Accuser.",
      "release_date": "2014-07-30"
    },
    {
      "vote_count": 105,
      "id": 396422,
      "video": false,
      "vote_average": 6.9,
      "title": "Annabelle: Creation",
      "popularity": 37.992947,
      "poster_path": "\/tb86j8jVCVsdZnzf8I6cIi65IeM.jpg",
      "original_language": "en",
      "original_title": "Annabelle: Creation",
      "genre_ids": [
        53,
        27
      ],
      "backdrop_path": "\/o8u0NyEigCEaZHBdCYTRfXR8U4i.jpg",
      "adult": false,
      "overview": "Several years after the tragic death of their little girl, a dollmaker and his wife welcome a nun and several girls from a shuttered orphanage into their home, soon becoming the target of the dollmaker's possessed creation, Annabelle.",
      "release_date": "2017-08-09"
    },
    {
      "vote_count": 10061,
      "id": 157336,
      "video": false,
      "vote_average": 8.1,
      "title": "Interstellar",
      "popularity": 35.227045,
      "poster_path": "\/nBNZadXqJSdt05SHLqgT0HuC5Gm.jpg",
      "original_language": "en",
      "original_title": "Interstellar",
      "genre_ids": [
        12,
        18,
        878
      ],
      "backdrop_path": "\/xu9zaAevzQ5nnrsXN6JcahLnG4i.jpg",
      "adult": false,
      "overview": "Interstellar chronicles the adventures of a group of explorers who make use of a newly discovered wormhole to surpass the limitations on human space travel and conquer the vast distances involved in an interstellar voyage.",
      "release_date": "2014-11-05"
    },
    {
      "vote_count": 5335,
      "id": 263115,
      "video": false,
      "vote_average": 7.5,
      "title": "Logan",
      "popularity": 35.19519,
      "poster_path": "\/gGBu0hKw9BGddG8RkRAMX7B6NDB.jpg",
      "original_language": "en",
      "original_title": "Logan",
      "genre_ids": [
        28,
        18,
        878
      ],
      "backdrop_path": "\/5pAGnkFYSsFJ99ZxDIYnhQbQFXs.jpg",
      "adult": false,
      "overview": "In the near future, a weary Logan cares for an ailing Professor X in a hideout on the Mexican border. But Logan's attempts to hide from the world and his legacy are upended when a young mutant arrives, pursued by dark forces.",
      "release_date": "2017-02-28"
    },
    {
      "vote_count": 4008,
      "id": 61791,
      "video": false,
      "vote_average": 7,
      "title": "Rise of the Planet of the Apes",
      "popularity": 34.581933,
      "poster_path": "\/esqXMJv6PiK7GJVRwd2FA3SZUoW.jpg",
      "original_language": "en",
      "original_title": "Rise of the Planet of the Apes",
      "genre_ids": [
        53,
        28,
        18,
        878
      ],
      "backdrop_path": "\/caIpcr9xhvRcWfOMRDq3F5iIcLB.jpg",
      "adult": false,
      "overview": "Scientist Will Rodman is determined to find a cure for Alzheimer's, the disease which has slowly consumed his father. Will feels certain he is close to a breakthrough and tests his latest serum on apes, noticing dramatic increases in intelligence and brain activity in the primate subjects – especially Caesar, his pet chimpanzee.",
      "release_date": "2011-08-03"
    },
    {
      "vote_count": 8884,
      "id": 76341,
      "video": false,
      "vote_average": 7.2,
      "title": "Mad Max: Fury Road",
      "popularity": 33.359423,
      "poster_path": "\/kqjL17yufvn9OVLyXYpvtyrFfak.jpg",
      "original_language": "en",
      "original_title": "Mad Max: Fury Road",
      "genre_ids": [
        28,
        12,
        878,
        53
      ],
      "backdrop_path": "\/phszHPFVhPHhMZgo0fWTKBDQsJA.jpg",
      "adult": false,
      "overview": "An apocalyptic story set in the furthest reaches of our planet, in a stark desert landscape where humanity is broken, and most everyone is crazed fighting for the necessities of life. Within this world exist two rebels on the run who just might be able to restore order. There's Max, a man of action and a man of few words, who seeks peace of mind following the loss of his wife and child in the aftermath of the chaos. And Furiosa, a woman of action and a woman who believes her path to survival may be achieved if she can make it across the desert back to her childhood homeland.",
      "release_date": "2015-05-13"
    },
    {
      "vote_count": 10119,
      "id": 293660,
      "video": false,
      "vote_average": 7.4,
      "title": "Deadpool",
      "popularity": 33.219647,
      "poster_path": "\/inVq3FRqcYIRl2la8iZikYYxFNR.jpg",
      "original_language": "en",
      "original_title": "Deadpool",
      "genre_ids": [
        28,
        12,
        35
      ],
      "backdrop_path": "\/n1y094tVDFATSzkTnFxoGZ1qNsG.jpg",
      "adult": false,
      "overview": "Deadpool tells the origin story of former Special Forces operative turned mercenary Wade Wilson, who after being subjected to a rogue experiment that leaves him with accelerated healing powers, adopts the alter ego Deadpool. Armed with his new abilities and a dark, twisted sense of humor, Deadpool hunts down the man who nearly destroyed his life.",
      "release_date": "2016-02-09"
    },
    {
      "vote_count": 2006,
      "id": 126889,
      "video": false,
      "vote_average": 5.7,
      "title": "Alien: Covenant",
      "popularity": 31.155053,
      "poster_path": "\/zecMELPbU5YMQpC81Z8ImaaXuf9.jpg",
      "original_language": "en",
      "original_title": "Alien: Covenant",
      "genre_ids": [
        27,
        878,
        53
      ],
      "backdrop_path": "\/kMU8trT43p5LFoJ4plIySMOsZ1T.jpg",
      "adult": false,
      "overview": "Bound for a remote planet on the far side of the galaxy, the crew of the colony ship 'Covenant' discovers what is thought to be an uncharted paradise, but is actually a dark, dangerous world – which has its sole inhabitant the 'synthetic', David, survivor of the doomed Prometheus expedition.",
      "release_date": "2017-05-09"
    },
    {
      "vote_count": 8160,
      "id": 135397,
      "video": false,
      "vote_average": 6.5,
      "title": "Jurassic World",
      "popularity": 29.469824,
      "poster_path": "\/jjBgi2r5cRt36xF6iNUEhzscEcb.jpg",
      "original_language": "en",
      "original_title": "Jurassic World",
      "genre_ids": [
        28,
        12,
        878,
        53
      ],
      "backdrop_path": "\/dkMD5qlogeRMiEixC4YNPUvax2T.jpg",
      "adult": false,
      "overview": "Twenty-two years after the events of Jurassic Park, Isla Nublar now features a fully functioning dinosaur theme park, Jurassic World, as originally envisioned by John Hammond.",
      "release_date": "2015-06-09"
    },
    {
      "vote_count": 1962,
      "id": 315837,
      "video": false,
      "vote_average": 5.9,
      "title": "Ghost in the Shell",
      "popularity": 27.06698,
      "poster_path": "\/myRzRzCxdfUWjkJWgpHHZ1oGkJd.jpg",
      "original_language": "en",
      "original_title": "Ghost in the Shell",
      "genre_ids": [
        28,
        80,
        18,
        9648,
        878,
        53
      ],
      "backdrop_path": "\/jGPSVArC0GS2VVc0aGAqGTjfFOG.jpg",
      "adult": false,
      "overview": "In the near future, Major is the first of her kind: a human saved from a terrible crash, then cyber-enhanced to be a perfect soldier devoted to stopping the world's most dangerous criminals.",
      "release_date": "2017-03-29"
    },
    {
      "vote_count": 6501,
      "id": 22,
      "video": false,
      "vote_average": 7.4,
      "title": "Pirates of the Caribbean: The Curse of the Black Pearl",
      "popularity": 26.979106,
      "poster_path": "\/tkt9xR1kNX5R9rCebASKck44si2.jpg",
      "original_language": "en",
      "original_title": "Pirates of the Caribbean: The Curse of the Black Pearl",
      "genre_ids": [
        12,
        14,
        28
      ],
      "backdrop_path": "\/8AUQ7YlJJA9C8kWk8P4YNHIcFDE.jpg",
      "adult": false,
      "overview": "Jack Sparrow, a freewheeling 17th-century pirate who roams the Caribbean Sea, butts heads with a rival pirate bent on pillaging the village of Port Royal. When the governor's daughter is kidnapped, Sparrow decides to help the girl's love save her. But their seafaring mission is hardly simple.",
      "release_date": "2003-07-09"
    },
    {
      "vote_count": 2783,
      "id": 283366,
      "video": false,
      "vote_average": 6.5,
      "title": "Miss Peregrine's Home for Peculiar Children",
      "popularity": 26.00233,
      "poster_path": "\/AvekzUdI8HZnImdQulmTTmAZXrC.jpg",
      "original_language": "en",
      "original_title": "Miss Peregrine's Home for Peculiar Children",
      "genre_ids": [
        18,
        14,
        12
      ],
      "backdrop_path": "\/9BVHn78oQcFCRd4M3u3NT7OrhTk.jpg",
      "adult": false,
      "overview": "A teenager finds himself transported to an island where he must help protect a group of orphans with special powers from creatures intent on destroying them.",
      "release_date": "2016-09-28"
    },
    {
      "vote_count": 986,
      "id": 274857,
      "video": false,
      "vote_average": 6.5,
      "title": "King Arthur: Legend of the Sword",
      "popularity": 23.442571,
      "poster_path": "\/qyXPqzlCWf3T9VEpBtquUQZwsgi.jpg",
      "original_language": "en",
      "original_title": "King Arthur: Legend of the Sword",
      "genre_ids": [
        28,
        18,
        14
      ],
      "backdrop_path": "\/22eFfWlar6MtXO5qG25TkjLphoj.jpg",
      "adult": false,
      "overview": "When the child Arthur’s father is murdered, Vortigern, Arthur’s uncle, seizes the crown. Robbed of his birthright and with no idea who he truly is, Arthur comes up the hard way in the back alleys of the city. But once he pulls the sword Excalibur from the stone, his life is turned upside down and he is forced to acknowledge his true legacy... whether he likes it or not.",
      "release_date": "2017-04-27"
    }
  ]
}
